Conversations and Attitudes About Mental Health in Twitter Discourse
…
NA

lungcancer

Remove stop words

Get the stopwords from the get_stopwords() function

Remove the stop words from the cleaned_tokens

sw = get_stopwords()
sw

## # A tibble: 175 x 2
##    word      lexicon 
##    <chr>     <chr>   
##  1 i         snowball
##  2 me        snowball
##  3 my        snowball
##  4 myself    snowball
##  5 we        snowball
##  6 our       snowball
##  7 ours      snowball
##  8 ourselves snowball
##  9 you       snowball
## 10 your      snowball
## # ... with 165 more rows
…
NA

coloncancer

Remove numbers

Get the numbers from cleaned_tokens and then remove them.

nums <- cleaned_tokens %>%
  filter(str_detect(word, "^[0-9]")) %>%
  select(word) %>% unique()

nums

## # A tibble: 2,472 x 1
##    word          
##    <chr>         
##  1 1cancerkiller 
##  2 22aday        
##  3 22kill        
##  4 22for22       
##  5 22strong      
##  6 0001f31e      
##  7 0001f9a9      
##  8 1.800.273.8255
##  9 0001f64f      
## 10 0001f441      
## # ... with 2,462 more rows
…
Remove rare words

It makes sense to remove rare words to improve the performance of text analytics

Removing words that have less than 10 appearances in this collection

rare <- cleaned_tokens %>%
  count(word) %>%
  filter(n<10) %>%
  select(word) %>% 
  unique()
rare

## # A tibble: 26,290 x 1
##    word                     
##    <chr>                    
##  1 ___                      
##  2 _______________          
##  3 ___________________      
##  4 _________________________
##  5 _addz20                  
##  6 _authenticme_            
##  7 _bigzeeks                
##  8 _bluewolverine           
##  9 _diabetesaction          
## 10 _digitalindia            
## # ... with 26,280 more rows
…
